<?xml version="1.0" encoding="utf-8"?>
<!-- Generator: Adobe Illustrator 22.1.0, SVG Export Plug-In . SVG Version: 6.00 Build 0)  -->
<svg version="1.1" id="Слой_1" xmlns="http://www.w3.org/2000/svg" xmlns:xlink="http://www.w3.org/1999/xlink" x="0px" y="0px"
	 viewBox="0 0 841.9 595.3" style="enable-background:new 0 0 841.9 595.3;" xml:space="preserve">
<style type="text/css">
	.st0{fill:#EDEDED;stroke:#1D1D1B;stroke-width:30;stroke-miterlimit:10;}
	.st1{fill:#DADADA;stroke:#1D1D1B;stroke-width:20;stroke-miterlimit:10;}
	.st2{display:none;fill:none;stroke:#1D1D1B;stroke-width:10;stroke-miterlimit:10;}
	.st3{fill:#1D1D1D;}
	.st4{fill:none;stroke:#1D1D1B;stroke-width:30;stroke-miterlimit:10;}
</style>
<rect x="110.5" y="13.9" class="st0" width="702.5" height="410.1"/>
<rect x="26" y="297.6" class="st1" width="450.9" height="284"/>
<rect x="26" y="310" class="st2" width="450.9" height="236.5"/>
<g>
	<g>
		<g>
			<polygon class="st3" points="721.7,112.3 766.4,58.1 704.5,91.4 709.5,97.5 506.9,263.8 514,272.5 716.7,106.2 			"/>
		</g>
	</g>
	<g>
		<g>
			<polygon class="st3" points="84.5,127 88.4,56.8 58.3,120.4 66,122.3 30.8,260.5 41.7,263.3 76.9,125.1 			"/>
		</g>
	</g>
	<g>
		<g>
			<polygon class="st3" points="726.8,498.6 785.9,460.6 716.8,473.5 719.7,480.9 514.9,562.3 519.1,572.7 723.9,491.3 			"/>
		</g>
	</g>
	<g>
		<g>
			<polygon class="st3" points="73.5,528.8 92.8,461.2 49.5,516.5 56.5,520.1 51.6,529.7 42.6,547.4 52.6,552.5 61.6,534.8 
				66.5,525.2 			"/>
		</g>
	</g>
</g>
<rect x="110.5" y="13.9" class="st4" width="702.5" height="410.1"/>
</svg>
